//
//==============================================================================
// ARQUIVO DE DADOS PARA TESTE DO ALGORITMO GENÉTICO destinado a resolver o 
//    University Course TimeTabling Problem (UCTTP)
//==============================================================================
//
// Este arquivo contém informações de entrada, fornecidas pelo usuário, que 
// representam as especificações da instância do University Course
// TimeTabling Problem (UCTTP) a ser resolvida pelo Algoritmo Genético.
// 
// O arquivo apresenta SETE SEÇÕES, sempre iniciadas por uma palavra grafada em 
// letras maiúsculas e no singular.
//
// As seções são sempre apresentadas na seguinte ordem:
//
//    TIMESLOT
//    CURSO
//    TIPO DE SALA
//    SALA 
//    DISCIPLINA
//    ESTUDANTE
//    PROFESSOR
//
// Toda linha iniciada por // é considerada um COMENTÁRIO e, portanto, é descon-
// siderada no processamento do arquivo.
//
//------------------------------------------------------------------------------
// DESCRIÇÃO DAS SEÇÕES
//------------------------------------------------------------------------------
// 1ª SEÇÃO:  Timeslot
//               código do timeslot
//               dia da semana (1 = domingo, 2 = segunda, 3 = terça, ..., 
//                              7 = sábado)
//               horário de início  do timeslot
//               horário de término do timeslot
// 
//------------------------------------------------------------------------------
TIMESLOT
//------------------------------------------------------------------------------
//
1,1,00:00,00:59
2,1,01:00,01:59
3,1,02:00,02:59
4,1,03:00,03:59
5,1,04:00,04:59
6,1,05:00,05:59
7,1,06:00,06:59
8,1,07:00,07:59
9,1,08:00,08:59
10,1,09:00,09:59
11,1,10:00,10:59
12,1,11:00,11:59
13,1,12:00,12:59
14,1,13:00,13:59
15,1,14:00,14:59
16,1,15:00,15:59
17,1,16:00,16:59
18,1,17:00,17:59
19,1,18:00,18:59
20,1,19:00,19:59
21,1,20:00,20:59
22,1,21:00,21:59
23,1,22:00,22:59
24,1,23:00,23:59
25,2,00:00,00:59
26,2,01:00,01:59
27,2,02:00,02:59
28,2,03:00,03:59
29,2,04:00,04:59
30,2,05:00,05:59
31,2,06:00,06:59
32,2,07:00,07:59
33,2,08:00,08:59
34,2,09:00,09:59
35,2,10:00,10:59
36,2,11:00,11:59
37,2,12:00,12:59
38,2,13:00,13:59
39,2,14:00,14:59
40,2,15:00,15:59
41,2,16:00,16:59
42,2,17:00,17:59
43,2,18:00,18:59
44,2,19:00,19:59
45,2,20:00,20:59
46,2,21:00,21:59
47,2,22:00,22:59
48,2,23:00,23:59
49,3,00:00,00:59
50,3,01:00,01:59
51,3,02:00,02:59
52,3,03:00,03:59
53,3,04:00,04:59
54,3,05:00,05:59
55,3,06:00,06:59
56,3,07:00,07:59
57,3,08:00,08:59
58,3,09:00,09:59
59,3,10:00,10:59
60,3,11:00,11:59
61,3,12:00,12:59
62,3,13:00,13:59
63,3,14:00,14:59
64,3,15:00,15:59
65,3,16:00,16:59
66,3,17:00,17:59
67,3,18:00,18:59
68,3,19:00,19:59
69,3,20:00,20:59
70,3,21:00,21:59
71,3,22:00,22:59
72,3,23:00,23:59
73,4,00:00,00:59
74,4,01:00,01:59
75,4,02:00,02:59
76,4,03:00,03:59
77,4,04:00,04:59
78,4,05:00,05:59
79,4,06:00,06:59
80,4,07:00,07:59
81,4,08:00,08:59
82,4,09:00,09:59
83,4,10:00,10:59
84,4,11:00,11:59
85,4,12:00,12:59
86,4,13:00,13:59
87,4,14:00,14:59
88,4,15:00,15:59
89,4,16:00,16:59
90,4,17:00,17:59
91,4,18:00,18:59
92,4,19:00,19:59
93,4,20:00,20:59
94,4,21:00,21:59
95,4,22:00,22:59
96,4,23:00,23:59
97,5,00:00,00:59
98,5,01:00,01:59
99,5,02:00,02:59
100,5,03:00,03:59
101,5,04:00,04:59
102,5,05:00,05:59
103,5,06:00,06:59
104,5,07:00,07:59
105,5,08:00,08:59
106,5,09:00,09:59
107,5,10:00,10:59
108,5,11:00,11:59
109,5,12:00,12:59
110,5,13:00,13:59
111,5,14:00,14:59
112,5,15:00,15:59
113,5,16:00,16:59
114,5,17:00,17:59
115,5,18:00,18:59
116,5,19:00,19:59
117,5,20:00,20:59
118,5,21:00,21:59
119,5,22:00,22:59
120,5,23:00,23:59
121,6,00:00,00:59
122,6,01:00,01:59
123,6,02:00,02:59
124,6,03:00,03:59
125,6,04:00,04:59
126,6,05:00,05:59
127,6,06:00,06:59
128,6,07:00,07:59
129,6,08:00,08:59
130,6,09:00,09:59
131,6,10:00,10:59
132,6,11:00,11:59
133,6,12:00,12:59
134,6,13:00,13:59
135,6,14:00,14:59
136,6,15:00,15:59
137,6,16:00,16:59
138,6,17:00,17:59
139,6,18:00,18:59
140,6,19:00,19:59
141,6,20:00,20:59
142,6,21:00,21:59
143,6,22:00,22:59
144,6,23:00,23:59
145,7,00:00,00:59
146,7,01:00,01:59
147,7,02:00,02:59
148,7,03:00,03:59
149,7,04:00,04:59
150,7,05:00,05:59
151,7,06:00,06:59
152,7,07:00,07:59
153,7,08:00,08:59
154,7,09:00,09:59
155,7,10:00,10:59
156,7,11:00,11:59
157,7,12:00,12:59
158,7,13:00,13:59
159,7,14:00,14:59
160,7,15:00,15:59
161,7,16:00,16:59
162,7,17:00,17:59
163,7,18:00,18:59
164,7,19:00,19:59
165,7,20:00,20:59
166,7,21:00,21:59
167,7,22:00,22:59
168,7,23:00,23:59
//------------------------------------------------------------------------------
//
// 2ª Seção: Curso
//               código do curso
//               nome oficial do curso
//               número de períodos que formam o curso
//               turnos de funcionamento do curso (1 = matutino, 2 = vespertino
//                   3 = mat / vesp, 4 = noturno, 5 = mat / not, 6 = vesp / not
//                   7 = mat / vesp / not)
//
//------------------------------------------------------------------------------
CURSO
//------------------------------------------------------------------------------
//
1, Engenharia da Computação, 12, 5
2, Engenharia Elétrica, 10, 7
3, Engenharia Mecânica, 10, 3
//------------------------------------------------------------------------------
//
// 3ª Seção: Tipo de Sala
//               código do tipo de sala
//               descrição do tipo de sala
//
//------------------------------------------------------------------------------
TIPO DE SALA
//------------------------------------------------------------------------------
//
1, Sala Comum
2, Laboratório de Informática
3, Laboratório Específico 
4, Outro tipo
//------------------------------------------------------------------------------
//
// 4ª Seção: Sala
//              código da sala
//              descrição da sala (nome de identificação)
//              tipo da sala (veja a seção anterior)
//              capacidade (número máximo de estudantes que a sala pode atender)
//------------------------------------------------------------------------------
SALA
//------------------------------------------------------------------------------
//
1,Sala 1,1,50
2,Sala 2,1,50
3,Sala 3,1,50
4,Sala 4,1,50
5,Sala 5,1,50
6,Sala 6,1,50
7,Sala 7,1,50
8,Sala 8,1,50
9,Sala 9,1,50
10,Sala 10,1,50
11,Sala 11,1,50
12,Sala 12,1,50
13,Sala 13,1,50
14,Sala 14,1,50
15,Sala 15,1,50
16,Sala 16,1,50
17,Sala 17,1,50
18,Sala 18,1,50
19,Sala 19,1,50
20,Sala 20,1,50
21,Sala 21,1,50
22,Sala 22,1,50
23,Sala 23,1,50
24,Sala 24,1,50
25,Sala 25,1,50
26,Sala 26,1,50
27,Sala 27,1,50
28,Sala 28,1,50
29,Sala 29,1,50
30,Sala 30,1,50
31,Sala 31,1,60
32,Sala 32,1,60
33,Sala 33,1,60
34,Sala 34,1,60
35,Sala 35,1,60
36,Sala 36,1,60
37,Sala 37,1,60
38,Sala 38,1,60
39,Sala 39,1,60
40,Sala 40,1,60
41,Sala 41,2,40
42,Sala 42,2,40
43,Sala 43,2,40
44,Sala 44,2,40
45,Sala 45,2,40
46,Sala 46,2,40
47,Sala 47,2,40
48,Sala 48,2,40
49,Sala 49,2,40
50,Sala 50,2,40
51,Sala 51,2,40
52,Sala 52,2,40
53,Sala 53,2,40
54,Sala 54,2,40
55,Sala 55,2,40
56,Sala 56,2,40
57,Sala 57,2,40
58,Sala 58,2,40
59,Sala 59,2,40
60,Sala 60,2,40
61,Sala 61,3,40
62,Sala 62,3,40
63,Sala 63,3,40
64,Sala 64,3,40
65,Sala 65,3,40
66,Sala 66,3,40
67,Sala 67,3,40
68,Sala 68,3,40
69,Sala 69,3,40
70,Sala 70,3,40
71,Sala 71,3,30
72,Sala 72,3,30
73,Sala 73,3,30
74,Sala 74,3,30
75,Sala 75,3,30
76,Sala 76,3,30
77,Sala 77,3,30
78,Sala 78,3,30
79,Sala 79,3,30
80,Sala 80,3,30
//------------------------------------------------------------------------------
//
// 5ª Seção: Disciplina
//             código da disciplina
//             código do curso ao qual a disciplina está vinculada
//             código do período, no curso, ao qual a disciplina está vinculada
//             carga horária semanal de aulas teóricas da disciplina
//             tipo de sala necessário para as aulas teóricas da disciplina
//             carga horária semanal de aulas práticas da disciplina
//             tipo de sala necessário para as aulas práticas da disciplina
//
//------------------------------------------------------------------------------
DISCIPLINA
//------------------------------------------------------------------------------
//
111,1,1,dsc111,4,1,0,0
112,1,1,dsc112,4,1,0,0
113,1,1,dsc113,2,1,2,2
114,1,1,dsc114,4,1,0,0
115,1,1,dsc115,2,1,2,2
121,1,2,dsc121,0,0,4,3
122,1,2,dsc122,0,0,4,3
123,1,2,dsc123,4,1,0,0
124,1,2,dsc124,4,1,0,0
131,1,3,dsc131,2,1,2,3
132,1,3,dsc132,2,1,2,3
133,1,3,dsc133,2,1,2,3
134,1,3,dsc134,2,1,2,3
135,1,3,dsc135,2,1,2,3
141,1,4,dsc141,4,1,0,0
142,1,4,dsc142,4,1,0,0
143,1,4,dsc143,4,1,0,0
144,1,4,dsc144,4,1,0,0
145,1,4,dsc145,4,1,0,0
146,1,4,dsc146,4,1,0,0
151,1,5,dsc151,2,1,2,2
152,1,5,dsc152,2,1,2,3
153,1,5,dsc153,2,1,2,3
154,1,5,dsc154,4,1,0,0
155,1,5,dsc155,4,1,0,0
161,1,6,dsc161,4,1,0,0
162,1,6,dsc162,4,1,0,0
163,1,6,dsc163,4,1,0,0
164,1,6,dsc164,4,1,0,0
165,1,6,dsc165,4,1,0,0
171,1,7,dsc171,0,0,4,2
172,1,7,dsc172,0,0,4,2
173,1,7,dsc173,2,1,2,2
174,1,7,dsc174,4,1,0,0
175,1,7,dsc175,4,1,0,0
181,1,8,dsc181,4,1,0,0
182,1,8,dsc182,4,1,0,0
183,1,8,dsc183,4,1,0,0
184,1,8,dsc184,4,1,0,0
185,1,8,dsc185,2,1,2,3
191,1,9,dsc191,0,0,2,3
192,1,9,dsc192,0,0,2,3
193,1,9,dsc193,4,1,0,0
194,1,9,dsc194,4,1,0,0
1101,1,10,dsc1101,4,1,0,0
1102,1,10,dsc1102,4,1,0,0
1103,1,10,dsc1103,2,1,2,3
1104,1,10,dsc1104,2,1,2,3
1105,1,10,dsc1105,4,1,0,0
1106,1,10,dsc1106,0,0,4,3
1107,1,10,dsc1107,2,1,2,3
211,2,1,dsc211,2,1,2,2
212,2,1,dsc212,2,1,2,2
213,2,1,dsc213,2,1,2,3
214,2,1,dsc214,2,1,2,3
215,2,1,dsc215,2,1,2,3
221,2,2,dsc221,4,1,0,0
222,2,2,dsc222,4,1,0,0
223,2,2,dsc223,0,0,4,3
224,2,2,dsc224,0,0,4,3
231,2,3,dsc231,4,1,4,2
232,2,3,dsc232,4,1,4,2
233,2,3,dsc233,2,1,0,0
234,2,3,dsc234,2,1,0,0
235,2,3,dsc235,2,1,0,0
241,2,4,dsc241,4,1,0,0
242,2,4,dsc242,4,1,0,0
243,2,4,dsc243,2,1,2,3
244,2,4,dsc244,4,1,0,0
245,2,4,dsc245,4,1,0,0
246,2,4,dsc246,4,1,0,0
251,2,5,dsc251,0,0,4,2
252,2,5,dsc252,0,0,4,2
253,2,5,dsc253,4,1,0,0
254,2,5,dsc254,0,0,4,3
255,2,5,dsc255,0,0,4,3
261,2,6,dsc261,2,1,2,3
262,2,6,dsc262,2,1,2,3
263,2,6,dsc263,2,1,2,3
264,2,6,dsc264,2,1,2,3
265,2,6,dsc265,2,1,2,3
271,2,7,dsc271,4,1,0,0
272,2,7,dsc272,2,1,2,2
273,2,7,dsc273,4,1,0,0
274,2,7,dsc274,4,1,0,0
275,2,7,dsc275,4,1,0,0
281,2,8,dsc281,0,0,4,3
282,2,8,dsc282,0,0,4,3
283,2,8,dsc283,2,1,2,2
284,2,8,dsc284,2,1,2,2
285,2,8,dsc285,4,1,0,0
291,2,9,dsc291,4,1,4,2
292,2,9,dsc292,4,1,4,2
293,2,9,dsc293,4,1,0,0
294,2,9,dsc294,0,0,4,2
295,2,9,dsc295,4,1,0,0
2101,2,10,dsc2101,4,1,0,0
2102,2,10,dsc2102,4,1,0,0
2103,2,10,dsc2103,4,1,0,0
2104,2,10,dsc2104,4,1,0,0
2105,2,10,dsc2105,4,1,0,0
311,3,1,dsc311,4,1,0,0
312,3,1,dsc312,4,1,0,0
313,3,1,dsc313,4,1,0,0
314,3,1,dsc314,2,1,2,2
315,3,1,dsc315,2,1,2,2
316,3,1,dsc316,0,0,4,2
321,3,2,dsc321,4,1,0,0
322,3,2,dsc322,4,1,0,0
323,3,2,dsc323,4,1,0,0
324,3,2,dsc324,4,1,0,0
325,3,2,dsc325,4,1,0,0
331,3,3,dsc331,0,0,4,2
332,3,3,dsc332,0,0,4,2
333,3,3,dsc333,0,0,4,3
334,3,3,dsc334,0,0,4,3
335,3,3,dsc335,4,1,4,2
341,3,4,dsc341,4,1,0,0
342,3,4,dsc342,4,1,0,0
343,3,4,dsc343,0,0,2,3
344,3,4,dsc344,0,0,2,2
345,3,4,dsc345,0,0,4,2
346,3,4,dsc346,4,1,4,3
351,3,5,dsc351,4,1,0,0
352,3,5,dsc352,4,1,0,0
353,3,5,dsc353,4,1,0,0
354,3,5,dsc354,0,0,4,3
355,3,5,dsc355,0,0,4,3
361,3,6,dsc361,2,1,2,3
362,3,6,dsc362,2,1,2,2
363,3,6,dsc363,2,1,2,2
364,3,6,dsc364,2,1,2,3
365,3,6,dsc365,4,1,0,0
371,3,7,dsc371,4,1,0,0
372,3,7,dsc372,4,1,0,0
373,3,7,dsc373,4,1,0,0
374,3,7,dsc374,4,1,0,0
375,3,7,dsc375,4,1,0,0
381,3,8,dsc381,0,0,4,2
382,3,8,dsc382,0,0,4,2
383,3,8,dsc383,2,1,2,2
384,3,8,dsc384,2,1,2,2
385,3,8,dsc385,4,1,0,0
391,3,9,dsc391,4,1,0,0
392,3,9,dsc392,4,1,0,0
393,3,9,dsc393,4,1,0,0
394,3,9,dsc394,0,0,4,2
395,3,9,dsc395,4,1,0,0
3101,3,10,dsc3101,0,0,4,2
3102,3,10,dsc3102,0,0,4,2
3103,3,10,dsc3103,0,0,4,3
3104,3,10,dsc3104,0,0,4,3
3105,3,10,dsc3105,0,0,4,3
//------------------------------------------------------------------------------
//
// 6ª Seção: Estudante
//            código do estudante (ou número de matrícula)
//            nome completo do estudante
//            [código da disciplina a ser cursada]: sequência de códigos
//               das disciplinas que o estudante deve cursar naquele 
//               período letivo.
//               São, no máximo, dez disciplinas.
//
//------------------------------------------------------------------------------
ESTUDANTE
//------------------------------------------------------------------------------
//
1,Estudante 0001,111,112,113
2,Estudante 0002,111,113,122
3,Estudante 0003,111,112,121
4,Estudante 0004,111,113,121
5,Estudante 0005,111,113,121
6,Estudante 0006,111,112,121
7,Estudante 0007,111,113,123,124
8,Estudante 0008,111,112
9,Estudante 0009,111,112,122,124
10,Estudante 0010,111,112,121
11,Estudante 0011,112,114,121
12,Estudante 0012,112,114,121
13,Estudante 0013,111,114,121
14,Estudante 0014,113,114,121
15,Estudante 0015,111,114,121
16,Estudante 0016,113,114,121
17,Estudante 0017,111,112,114
18,Estudante 0018,113,114,124
19,Estudante 0019,111,114,122
20,Estudante 0020,112,114,121
21,Estudante 0021,111,123,124
22,Estudante 0022,113,114
23,Estudante 0023,112,122
24,Estudante 0024,111,114
25,Estudante 0025,113,114,121
26,Estudante 0026,111,114,121
27,Estudante 0027,112,114,121
28,Estudante 0028,111,115,121
29,Estudante 0029,113,124
30,Estudante 0030,113,124
31,Estudante 0031,111,112,114
32,Estudante 0032,112,114,122,123,124
33,Estudante 0033,112,114,124
34,Estudante 0034,111,112,114
35,Estudante 0035,113,115,122,123
36,Estudante 0036,113,114,115
37,Estudante 0037,111,114
38,Estudante 0038,113,121
39,Estudante 0039,113,115,121
40,Estudante 0040,111,115,121
41,Estudante 0041,112,114
42,Estudante 0042,113,115,121
43,Estudante 0043,111,115
44,Estudante 0044,112,113,114,121
45,Estudante 0045,112,113,114,121
46,Estudante 0046,111,114,122
47,Estudante 0047,131,132,133,134,135
48,Estudante 0048,113,114,121
49,Estudante 0049,111,112,115
50,Estudante 0050,131,132,133,134,135
51,Estudante 0051,111,114,115
52,Estudante 0052,112,115,122,123
53,Estudante 0053,111,114,115
54,Estudante 0054,131,132,133,134,135
55,Estudante 0055,112,122,123
56,Estudante 0056,111,124
57,Estudante 0057,131,132,133,134,135
58,Estudante 0058,112,121
59,Estudante 0059,111,121
60,Estudante 0060,131,132,133,134,135
61,Estudante 0061,112,123,124
62,Estudante 0062,111,115,122
63,Estudante 0063,111,115,124
64,Estudante 0064,131,132,133,134,135
65,Estudante 0065,111,112,115
66,Estudante 0066,131,132,133,134,135
67,Estudante 0067,111,114,121
68,Estudante 0068,112,121
69,Estudante 0069,111,114,121
70,Estudante 0070,131,132,133,134,135
71,Estudante 0071,112,114
72,Estudante 0072,111,114,115,124
73,Estudante 0073,131,132,133,134,135
74,Estudante 0074112,114,124
75,Estudante 0075,111,114,115
76,Estudante 0076,131,132,133,134,135
77,Estudante 0077,112,114,115,124
78,Estudante 0078,111,114,115
79,Estudante 0079,131,132,133,134,135
80,Estudante 0080,112,115,123
81,Estudante 0081,111,114,122
82,Estudante 0082,131,132,133,134,135
83,Estudante 0083,111,114,123
84,Estudante 0084,131,132,133,134,135
85,Estudante 0085,131,132,133,134,135
86,Estudante 0086,111,114,123
87,Estudante 0087,131,132,133,134,135
88,Estudante 0088,131,132,133,134,135
89,Estudante 0089,111,114,115
90,Estudante 0090,131,132,133,134,135
91,Estudante 0091,114,115,121
92,Estudante 0092,114,115,122
93,Estudante 0093,114,115,121
94,Estudante 0094,114,115,122
95,Estudante 0095,114,115,121,123
96,Estudante 0096,114,115,122
97,Estudante 0097,114,115,122
98,Estudante 0098,114,115,121
99,Estudante 0099,114,115,122
100,Estudante 0100,114,115,121,123
101,Estudante 0101,121,122,123,124
102,Estudante 0102,131,132,133,134,135
103,Estudante 0103,131,132,133,134,135
104,Estudante 0104,121,122,123,124
105,Estudante 0105,131,132,133,134,135
106,Estudante 0106,131,132,133,134,135
107,Estudante 0107,131,132,133,134,135
108,Estudante 0108,131,132,133,134,135
109,Estudante 0109,121,122,123,124
110,Estudante 0110,131,132,133,134,135
111,Estudante 0111,131,132,133,134,135
112,Estudante 0112,121,122,123,124
113,Estudante 0113,131,132,133,134,135
114,Estudante 0114,131,132,133,134,135
115,Estudante 0115,131,132,133,134,135
116,Estudante 0116,121,122,123,124
117,Estudante 0117,131,132,133,134,135
118,Estudante 0118,131,132,133,134,135
119,Estudante 0119,131,132,133,134,135
120,Estudante 0120,131,132,133,134,135
121,Estudante 0121,121,122,123,124
122,Estudante 0122,131,132,133,134,135
123,Estudante 0123,131,132,133,134,135
124,Estudante 0124,131,132,133,134,135
125,Estudante 0125,121,122,123,124
126,Estudante 0126,131,132,133,134,135
127,Estudante 0127,131,132,133,134,135
128,Estudante 0128,131,132,133,134,135
129,Estudante 0129,121,122,123,124
130,Estudante 0130,131,132,133,134,135
131,Estudante 0131,131,132,133,134,135
132,Estudante 0132,131,132,133,134,135
133,Estudante 0133,121,122,123,124
134,Estudante 0134,131,132,133,134,135
135,Estudante 0135,131,132,133,134,135
136,Estudante 0136,131,132,133,134,135
137,Estudante 0137,131,132,133,134,135
138,Estudante 0138,121,122,123,124
139,Estudante 0139,141,142,143,144,145,146
140,Estudante 0140,141,142,143,144,145,146
141,Estudante 0141,141,142,143,144,145,146
142,Estudante 0142,141,142,143,144,145,146
143,Estudante 0143,141,142,143,144,145,146
144,Estudante 0144,141,142,143,144,145,146
145,Estudante 0145,121,122,123,124
146,Estudante 0146,121,122,123,124
147,Estudante 0147,121,122,123,124
148,Estudante 0148,121,122,123,124
149,Estudante 0149,121,122,123,124
150,Estudante 0150,121,122,123,124
151,Estudante 0151,141,142,143,144,145,146
152,Estudante 0152,141,142,143,144,145,146
153,Estudante 0153,141,142,143,144,145,146
154,Estudante 0154,141,142,143,144,145,146
155,Estudante 0155,141,142,143,144,145,146
156,Estudante 0156,121,122,123,124
157,Estudante 0157,121,122,123,124
158,Estudante 0158,121,122,123,124
159,Estudante 0159,121,122,123,124
160,Estudante 0160,141,142,144,145,146,154
161,Estudante 0161,141,142,143,144,145,146
162,Estudante 0162,141,142,143,144,145,146
163,Estudante 0163,141,142,144,145,146,151
164,Estudante 0164,141,142,143,144,145,146
165,Estudante 0165,141,142,144,145,146,151
166,Estudante 0166,121,122,123,124
167,Estudante 0167,141,142,143,144,145,146
168,Estudante 0168,121,122,123,124
169,Estudante 0169,141,142,143,144,145,146
170,Estudante 0170,141,142,143,144,145,146
171,Estudante 0171,141,142,143,144,145,146
172,Estudante 0172,121,122,123,124
173,Estudante 0173,141,142,143,144,145,146
174,Estudante 0174,141,143,144,145,146,
175,Estudante 0175,141,142,143,144,145,146
176,Estudante 0176,141,142,143,144,145,146
177,Estudante 0177,141,143,144,145,146
178,Estudante 0178,141,142,143,144,145,146
179,Estudante 0179,141,142,143,144,145,146
180,Estudante 0180,141,143,144,145,146
181,Estudante 0181,141,142,143,144,145,146
182,Estudante 0182,144,146,151,152
183,Estudante 0183,141,145,146,153
184,Estudante 0184,121,122,123,124
185,Estudante 0185,141,142,143,144,145,146
186,Estudante 0186,121,122,123,124
187,Estudante 0187,121,122,123,124
188,Estudante 0188,141,142,143,145,146
189,Estudante 0189,141,142,143,145,146
190,Estudante 0190,141,142,143,145,146
191,Estudante 0191,121,122,123,124
192,Estudante 0192,141,142,143,144,146
193,Estudante 0193,121,122,123,124
194,Estudante 0194,141,142,143,144,146
195,Estudante 0195,121,122,123,124
196,Estudante 0196,121,122,123,124
197,Estudante 0197,141,142,143,144,145
198,Estudante 0198,141,142,143,144,145
199,Estudante 0199,141,142,143,144,145
200,Estudante 0200,141,142,143,144,145
201,Estudante 0201,151,152,153,154,155
202,Estudante 0202,151,152,153,154,155
203,Estudante 0203,151,152,153,154,155
204,Estudante 0204,151,152,153,154,155
205,Estudante 0205,151,152,153,154,155
206,Estudante 0206,151,152,153,154,155
207,Estudante 0207,151,152,153,154,155
208,Estudante 0208,151,152,153,154,155
209,Estudante 0209,151,152,153,154,155
210,Estudante 0210,151,152,153,154,155
211,Estudante 0211,152,153,154,161
212,Estudante 0212,152,153,154,162
213,Estudante 0213,151,152,153,163
214,Estudante 0214,152,153,154,164
215,Estudante 0215,152,153,154,165
216,Estudante 0216,151,152,153,164
217,Estudante 0217,151,154,155,163
218,Estudante 0218,151,154,155,165
219,Estudante 0219,151,154,155,162
220,Estudante 0220,151,152,153,162
221,Estudante 0221,152,153,155,163
222,Estudante 0222,152,153,155,161,162
223,Estudante 0223,152,153,155,161,163
224,Estudante 0224,151,155,161,163
225,Estudante 0225,151,155,163,165
226,Estudante 0226,151,155,162,164,165
227,Estudante 0227,151,155,162,163,165
228,Estudante 0228,151,153,155,162
229,Estudante 0229,161,162,163,164,165
230,Estudante 0230,161,162,163,164,165
231,Estudante 0231,151,153,155,162,161
232,Estudante 0232,161,162,163,164,165
233,Estudante 0233,161,162,163,164,165
234,Estudante 0234,151,153,155,162,164
235,Estudante 0235,161,162,163,164,165
236,Estudante 0236,161,162,163,164,165
237,Estudante 0237,151,153,155,162,165
238,Estudante 0238,161,162,163,164,165
239,Estudante 0239,171,172,173,174,175
240,Estudante 0240,171,172,173,174,175
241,Estudante 0241,161,162,163,164,165
242,Estudante 0242,162,172,173,175
243,Estudante 0243,161,162,163,164,165
244,Estudante 0244,162,172,173,175
245,Estudante 0245,171,174,175
246,Estudante 0246,161,162,163,164,165
247,Estudante 0247,164,171,172,174,175
248,Estudante 0248,161,162,163,164,165
249,Estudante 0249,162,171,172,173,174
250,Estudante 0250,161,162,163,164,165
251,Estudante 0251,161,171,172,173,174,175
252,Estudante 0252,163,171,172,173,174,175
253,Estudante 0253,161,162,163,164,165
254,Estudante 0254,161,162,163,164,165
255,Estudante 0255,161,162,163,164,165
256,Estudante 0256,161,162,163,164,165
257,Estudante 0257,161,162,163,164,165
258,Estudante 0258,162,173,175
259,Estudante 0259,172,173,181,183,184
260,Estudante 0260,171,174,175
261,Estudante 0261,161,162,163,164,165
262,Estudante 0262,161,162,163,164,165
263,Estudante 0263,161,162,163,164,165
264,Estudante 0264,161,162,163,164,165
265,Estudante 0265,161,162,163,164,165
266,Estudante 0266,172,181,182,183
267,Estudante 0267,181,185
268,Estudante 0268,182,185
269,Estudante 0269,183,185
270,Estudante 0270,181,182,183,184,185
271,Estudante 0271,181,182,183,184,185
272,Estudante 0272,181,182,183,184,185
273,Estudante 0273,161,162,163,164,165
274,Estudante 0274,161,162,163,164,165
275,Estudante 0275,161,162,163,164,165
276,Estudante 0276,161,162,163,164,165
277,Estudante 0277,161,162,163,164,165
278,Estudante 0278,161,162,163,164,165
279,Estudante 0279,181,182,183,184,185
280,Estudante 0280,181,182,183,184,185
281,Estudante 0281,181,182,183,184,185
282,Estudante 0282,181,182,183,184,185
283,Estudante 0283,181,182,183,184,185
284,Estudante 0284,183,184,185
285,Estudante 0285,183,184,185
286,Estudante 0286,181,184,185
287,Estudante 0287,184,185
288,Estudante 0288,174,183,184,185
289,Estudante 0289,173,183,184,185
290,Estudante 0290,161,162,163,164,165
291,Estudante 0291,161,162,163,164,165
292,Estudante 0292,161,162,163,164,165
293,Estudante 0293,161,162,163,164,165
294,Estudante 0294,161,162,163,164,165
295,Estudante 0295,161,162,163,164,165
296,Estudante 0296,161,162,163,164,165
297,Estudante 0297,185,192,193,194
298,Estudante 0298,163,175,184,185
299,Estudante 0299,185,191,194
300,Estudante 0300,172,173,181,182,185
301,Estudante 0301,183,192,193,194
302,Estudante 0302,162,172,175,182,183
303,Estudante 0303,172,183,192
304,Estudante 0304,175,185,191
305,Estudante 0305,161,162,163,164,165
306,Estudante 0306,191,192,193,194
307,Estudante 0307,1101,1102,1103,1104,1105,1106,1107
308,Estudante 0308,191,192,193,194
309,Estudante 0309,191,192,193,194
310,Estudante 0310,1101,1102,1103,1104,1105,1106,1107
311,Estudante 0311,1101,1102,1103,1104,1105,1106,1107
312,Estudante 0312,1101,1102,1103,1104,1105,1106,1107
313,Estudante 0313,191,192,193,194
314,Estudante 0314,191,192,193,194
315,Estudante 0315,191,192,193,194
316,Estudante 0316,191,192,193,194
317,Estudante 0317,1101,1102,1103,1104,1105,1106,1107
318,Estudante 0318,191,192,193,194
319,Estudante 0319,1101,1102,1103,1104,1105,1106,1107
320,Estudante 0320,191,192,193,194
321,Estudante 0321,1101,1102,1103,1104,1105,1106,1107
322,Estudante 0322,1101,1102,1103,1104,1105,1106,1107
323,Estudante 0323,191,192,193,194,1101,
324,Estudante 0324,191,192,193,194,1105,
325,Estudante 0325,1101,1102,1103,1104,1105,1106,1107
326,Estudante 0326,1101,1102,1103,1104,1105,1106,1107
327,Estudante 0327,191,192,193,194,1107
328,Estudante 0328,191,192,193,194,1106
329,Estudante 0329,191,1102,1104,1107
330,Estudante 0330,1101,1102,1103,1104,1105,1106,1107
331,Estudante 0331,1101,1102,1103,1104,1105,1106,1107
332,Estudante 0332,1101,1102,1103,1104,1105,1106,1107
333,Estudante 0333,1101,1102,1103,1104,1105,1106,1107
334,Estudante 0334,1107
335,Estudante 0335,1101,1102,1104
336,Estudante 0336,1104,1105,1106
337,Estudante 0337,1101,1102,1103,1104,1105,1106,1107
338,Estudante 0338,1101,1102,1103,1104,1105,1106,1107
339,Estudante 0339,1101,1102,1103,1104,1105,1106,1107
340,Estudante 0340,1105,1106,1107
341,Estudante 0341,1101,1102
342,Estudante 0342,1101
343,Estudante 0343,1101,1106
344,Estudante 0344,1101
345,Estudante 0345,1101,1105
346,Estudante 0346,1101
347,Estudante 0347,1101
348,Estudante 0348,1101,1107
349,Estudante 0349,1101,1106
350,Estudante 0350,1101
351,Estudante 0351,211,212,213,214,215
352,Estudante 0352,211,212,213,214,215
353,Estudante 0353,211,212,213,214,215
354,Estudante 0354,211,212,213,214,215
355,Estudante 0355,211,212,213,214,215
356,Estudante 0356,211,212,213,214,215
357,Estudante 0357,211,212,213,214,215
358,Estudante 0358,211,212,213,214,215
359,Estudante 0359,211,212,213,214,215
360,Estudante 0360,211,212,213,214,215
361,Estudante 0361,211,212,213,214,215
362,Estudante 0362,211,212,213,214,215
363,Estudante 0363,211,212,213,214,215
364,Estudante 0364,211,212,213,214,215
365,Estudante 0365,211,212,213,214,215
366,Estudante 0366,211,212,213,214,215
367,Estudante 0367,211,212,213,214,215
368,Estudante 0368,211,212,213,214,215
369,Estudante 0369,211,212,213,214,215
370,Estudante 0370,211,212,213,214,215
371,Estudante 0371,211,212,213,214,215
372,Estudante 0372,211,212,213,214,215
373,Estudante 0373,211,212,213,214,215
374,Estudante 0374,211,212,213,214,215
375,Estudante 0375,211,212,213,214,215
376,Estudante 0376,211,212,213,214,215
377,Estudante 0377,211,212,213,214,215
378,Estudante 0378,211,212,213,214,215
379,Estudante 0379,211,212,213,214,215
380,Estudante 0380,211,212,213,214,215
381,Estudante 0381,211,213
382,Estudante 0382,211,214
383,Estudante 0383,213,214,215
384,Estudante 0384,211,215
385,Estudante 0385,213,215
386,Estudante 0386,214,215
387,Estudante 0387,215,231,233
388,Estudante 0388,221,222,223,224
389,Estudante 0389,221,222,223,224
390,Estudante 0390,221,222,223,224
391,Estudante 0391,221,222
392,Estudante 0392,222,232,233
393,Estudante 0393,221,222,223,224
394,Estudante 0394,223,224,234,235
395,Estudante 0395,221,222,223,224
396,Estudante 0396,221,224,235
397,Estudante 0397,221,222,223,224
398,Estudante 0398,221,222,223,224
399,Estudante 0399,221,222,223,224,235
400,Estudante 0400,221,223,231
401,Estudante 0401,222,224,232
402,Estudante 0402,223,224,234
403,Estudante 0403,221,233,234
404,Estudante 0404,223,233,235
405,Estudante 0405,221,222,223,224
406,Estudante 0406,221,222,223,224
407,Estudante 0407,221,222,223,224
408,Estudante 0408,221,222,223,224
409,Estudante 0409,224,231,233
410,Estudante 0410,224,231,235
411,Estudante 0411,221,234
412,Estudante 0412,223,224
413,Estudante 0413,221,222,223,224
414,Estudante 0414,221,222,223,224
415,Estudante 0415,221,222,223,224
416,Estudante 0416,221,235
417,Estudante 0417,222,232,233
418,Estudante 0418,222,223,233,234
419,Estudante 0419,221,222,223,224
420,Estudante 0420,221,222,223,224
421,Estudante 0421,221,224,235
422,Estudante 0422,223,224,235
423,Estudante 0423,221,222,223,224
424,Estudante 0424,221,222,223,224
425,Estudante 0425,221,222,223,224
426,Estudante 0426,231,232,233,234,235
427,Estudante 0427,231,232,233,234,235
428,Estudante 0428,231,232,233,234,235
429,Estudante 0429,221,222,223,224
430,Estudante 0430,221,222,223,224
431,Estudante 0431,221,222,223,224
432,Estudante 0432,231,232,233,234,235
433,Estudante 0433,231,232,233,234,235
434,Estudante 0434,231,232,233,234,235
435,Estudante 0435,221,222,223,224
436,Estudante 0436,221,222,223,224
437,Estudante 0437,231,232,233,234,235
438,Estudante 0438,231,232,233,234,235
439,Estudante 0439,231,232,233,234,235
440,Estudante 0440,231,232,233,234,235
441,Estudante 0441,231,232,233,234,235
442,Estudante 0442,231,232,233,234,235
443,Estudante 0443,231,232,233,234,235
444,Estudante 0444,231,232,233,234,235
445,Estudante 0445,231,232,233,234,235
446,Estudante 0446,231,232,233,234,235
447,Estudante 0447,231,232,233,234,235
448,Estudante 0448,231,232,233,234,235
449,Estudante 0449,231,232,233,234,235
450,Estudante 0450,231,232,233,234,235
451,Estudante 0451,231,232,233,234,235
452,Estudante 0452,231,232,233,234,235
453,Estudante 0453,231,232,233,234,235
454,Estudante 0454,231,232,233,234,235
455,Estudante 0455,231,232,233,234,235
456,Estudante 0456,231,232,233,234,235
457,Estudante 0457,231,232,233,234,235
458,Estudante 0458,231,232,233,234,235
459,Estudante 0459,235,242,243,244
460,Estudante 0460,233,243,244
461,Estudante 0461,231,232,233,234,235
462,Estudante 0462,234,245,246
463,Estudante 0463,231,232,233,234,235
464,Estudante 0464,231,232,233,234,235
465,Estudante 0465,232,245,246
466,Estudante 0466,232,233,243,244
467,Estudante 0467,233,234,243,245
468,Estudante 0468,235,241,242
469,Estudante 0469,232,235,244,245
470,Estudante 0470,233,235,244,245
471,Estudante 0471,246,251
472,Estudante 0472,245,246
473,Estudante 0473,244,245,246,255
474,Estudante 0474,246,251,253
475,Estudante 0475,246,254
476,Estudante 0476,246,255
477,Estudante 0477,241,242,243,244,245,246
478,Estudante 0478,251,252,253,254,255
479,Estudante 0479,251,252,253,254,255
480,Estudante 0480,241,242,243,244,245,246
481,Estudante 0481,251,252,253,254,255
482,Estudante 0482,241,242,243,244,245,246
483,Estudante 0483,251,252,253,254,255
484,Estudante 0484,241,242,243,244,245,246
485,Estudante 0485,251,252,253,254,255
486,Estudante 0486,241,242,243,244,245,246
487,Estudante 0487,241,242,243,244,245,246
488,Estudante 0488,241,242,243,244,245,246
489,Estudante 0489,251,252,253,254,255
490,Estudante 0490,251,252,253,254,255
491,Estudante 0491,241,242,243,244,245,246
492,Estudante 0492,251,252,253,254,255
493,Estudante 0493,241,242,243,244,245,246
494,Estudante 0494,241,242,243,244,245,246
495,Estudante 0495,251,252,253,254,255
496,Estudante 0496,241,242,243,244,245,246
497,Estudante 0497,241,242,243,244,245,246
498,Estudante 0498,241,242,243,244,245,246
499,Estudante 0499,251,252,253,254,255
500,Estudante 0500,251,252,253,254,255
501,Estudante 0501,251,252,253,254,255
502,Estudante 0502,241,242,243,244,245,246
503,Estudante 0503,241,242,243,244,245,246
504,Estudante 0504,241,242,243,244,245,246
505,Estudante 0505,243,253,254
506,Estudante 0506,243,244,253
507,Estudante 0507,242,245,254
508,Estudante 0508,241,243
509,Estudante 0509,243,244,245
510,Estudante 0510,214,243,252
511,Estudante 0511,241,242,243,244,245,246
512,Estudante 0512,241,244,253
513,Estudante 0513,241,242,243,244,245,246
514,Estudante 0514,241,242,243,244,245,246
515,Estudante 0515,241,242,243,244,245,246
516,Estudante 0516,242,245,246,255
517,Estudante 0517,246,251,252
518,Estudante 0518,245,246,251,252,253
519,Estudante 0519,244,245,254,255
520,Estudante 0520,241,251,262,263
521,Estudante 0521,241,253,255
522,Estudante 0522,241,252,263,264
523,Estudante 0523,242,252,255
524,Estudante 0524,243,255,261,262,265
525,Estudante 0525,243,254,263,265
526,Estudante 0526,243,252,253
527,Estudante 0527,251,252,253,254,255
528,Estudante 0528,251,252,253,254,255
529,Estudante 0529,251,252,253,254,255
530,Estudante 0530,251,252,253,254,255
531,Estudante 0531,251,252,253,254,255
532,Estudante 0532,251,252,253,254,255
533,Estudante 0533,251,252,253,254,255
534,Estudante 0534,251,252,253,263
535,Estudante 0535,251,252,253,262
536,Estudante 0536,251,252,253,254,255
537,Estudante 0537,251,252,253,254,255
538,Estudante 0538,251,252,253,254,255
539,Estudante 0539,253,254,255,261
540,Estudante 0540,253,254,255,262,264
541,Estudante 0541,252,253,254,265
542,Estudante 0542,252,253,254,264
543,Estudante 0543,252,253,254,264,265
544,Estudante 0544,261,262,263,264,265
545,Estudante 0545,261,262,263,264,265
546,Estudante 0546,261,262,263,264,265
547,Estudante 0547,261,262,263,264,265
548,Estudante 0548
549,Estudante 0549
550,Estudante 0550,261,262,263,264,265
551,Estudante 0551,261,262,263,264,265
552,Estudante 0552
553,Estudante 0553
554,Estudante 0554
555,Estudante 0555
556,Estudante 0556,261,262,263,264,265
557,Estudante 0557,261,262,263,264,265
558,Estudante 0558,261,262,263,264,265
559,Estudante 0559,261,262,271,273
560,Estudante 0560,262,273,274
561,Estudante 0561,261,263,271,275
562,Estudante 0562,262,264,265,271,272
563,Estudante 0563,261,262,263,264,265
564,Estudante 0564,263,272,273,274
565,Estudante 0565,261,262,263,264,265
566,Estudante 0566,261,262,263,264,265
567,Estudante 0567,261,262,263,264,265
568,Estudante 0568,261,262,263,264,265
569,Estudante 0569,264,275
570,Estudante 0570,264,274,275
571,Estudante 0571,263,275
572,Estudante 0572,261,262,263,264,265
573,Estudante 0573,261,262,263,264,265
574,Estudante 0574,261,262,263,264,265
575,Estudante 0575,261,262,263,264,265
576,Estudante 0576,265,273,275
577,Estudante 0577,265,271,272,273
578,Estudante 0578,264,265,272,275
579,Estudante 0579,261,262,263,264,265
580,Estudante 0580,261,262,263,264,265
581,Estudante 0581,261,262,263,264,265
582,Estudante 0582,262,273
583,Estudante 0583,263,273,274
584,Estudante 0584,261,274
585,Estudante 0585,261,262,263,264,265
586,Estudante 0586,261,262,263,264,265
587,Estudante 0587,261,262,263,264,265
588,Estudante 0588,262,273,275
589,Estudante 0589,263,273
590,Estudante 0590,261,262,263,264,265
591,Estudante 0591,271,272,273,274,275
592,Estudante 0592,271,272,273,274,275
593,Estudante 0593,271,272,273,274,275
594,Estudante 0594,271,272,273,274,275
595,Estudante 0595,271,272,273,274,275
596,Estudante 0596,271,281,282
597,Estudante 0597,272,283,284
598,Estudante 0598,273,284,285
599,Estudante 0599,271,272,273,274,275
600,Estudante 0600,271,272,273,274,275
601,Estudante 0601,271,272,273,274,275
602,Estudante 0602,274,284,285
603,Estudante 0603,273,283,284
604,Estudante 0604,272,281,282
605,Estudante 0605,271,272,273,274,275
606,Estudante 0606,271,272,273,274,275
607,Estudante 0607,271,272,273,274,275
608,Estudante 0608,281,282,283,284,285
609,Estudante 0609,281,282,283,284,285
610,Estudante 0610,281,282,283,284,285
611,Estudante 0611,281,282,283,284,285
612,Estudante 0612,271,272,273,274,275
613,Estudante 0613,271,272,273,274,275
614,Estudante 0614,271,272,273,274,275
615,Estudante 0615,271,272,273,274,275
616,Estudante 0616,281,282,283,284,285
617,Estudante 0617,281,282,283,284,285
618,Estudante 0618,281,282,283,284,285
619,Estudante 0619,281,282,283,284,285
620,Estudante 0620,271,272,273,274,275
621,Estudante 0621,281,282,283,284,285
622,Estudante 0622,271,272,273,274,275
623,Estudante 0623,271,272,273,274,275
624,Estudante 0624,271,272,273,274,275
625,Estudante 0625,281,282,283,284,285
626,Estudante 0626,281,282,283,284,285
627,Estudante 0627,281,282,283,284,285
628,Estudante 0628,271,272,273,274,275
629,Estudante 0629,271,272,273,274,275
630,Estudante 0630,271,272,273,274,275
631,Estudante 0631,281,282,283,284,285
632,Estudante 0632,281,282,283,284,285
633,Estudante 0633,281,282,283,284,285
634,Estudante 0634,271,272,273,274,275
635,Estudante 0635,271,272,273,274,275
636,Estudante 0636,271,272,273,274,275
637,Estudante 0637,281,282,283,284,285
638,Estudante 0638,281,282,283,284,285
639,Estudante 0639,281,282,283,284,285
640,Estudante 0640,281,282,283,284,285
641,Estudante 0641,271,272,273,274,275
642,Estudante 0642,271,272,273,274,275
643,Estudante 0643,271,272,273,274,275
644,Estudante 0644,281,282,283,284,285
645,Estudante 0645,281,282,283,284,285
646,Estudante 0646,271,272,273,274,275
647,Estudante 0647,281,282,283,284,285
648,Estudante 0648,281,282,283,284,285
649,Estudante 0649,271,272,273,274,275
650,Estudante 0650,271,272,273,274,275
651,Estudante 0651,281,282,283,284,285
652,Estudante 0652,281,282,283,284,285
653,Estudante 0653,291,293
654,Estudante 0654,291,292,294
655,Estudante 0655,281,282,283,284,285
656,Estudante 0656,281,282,283,284,285
657,Estudante 0657,283,285,293,294
658,Estudante 0658,282,284,285
659,Estudante 0659,281,282,283,284,285
660,Estudante 0660,284,285,292,293
661,Estudante 0661,282,284,285
662,Estudante 0662,281,282,283,284,285
663,Estudante 0663,281,283,291
664,Estudante 0664,281,282,283,284,285
665,Estudante 0665,281,282,283,284,285
666,Estudante 0666,281,282,283,284,285
667,Estudante 0667,281,282,283,284,285
668,Estudante 0668,281,285,294
669,Estudante 0669,291,293,294
670,Estudante 0670,292,293
671,Estudante 0671,293,294
672,Estudante 0672,291,294,295
673,Estudante 0673,292,293,294
674,Estudante 0674,284,285,294,295
675,Estudante 0675,291,292,293
676,Estudante 0676,291,292
677,Estudante 0677,291,292,294
678,Estudante 0678,292,293
679,Estudante 0679,293,294
680,Estudante 0680,291,294
681,Estudante 0681,291,292,293,294
682,Estudante 0682,291,292,293,294
683,Estudante 0683
684,Estudante 0684,291,292,293,294
685,Estudante 0685,292,2101,2102
686,Estudante 0686,294,2103,2104,2105
687,Estudante 0687,291,292,293,294
688,Estudante 0688,2101,2102
689,Estudante 0689,291,292,293,294,2104
690,Estudante 0690,291,292,293,294
691,Estudante 0691,291,292,293,294,2101
692,Estudante 0692,292,2104
693,Estudante 0693,293,2104,2105
694,Estudante 0694,291,292,293,294,2105
695,Estudante 0695,2105
696,Estudante 0696,291,292,293,294,2103
697,Estudante 0697,2101,2102,2104
698,Estudante 0698,2104,2105
699,Estudante 0699,291,292,293,294
700,Estudante 0700,2103,2104,2105
701,Estudante 0701,291,292,293,294
702,Estudante 0702,291,292,293,294,2103
703,Estudante 0703,291,292,293,294
704,Estudante 0704,291,292,293,294,2102
705,Estudante 0705,291,292,293,294
706,Estudante 0706,2102,2103
707,Estudante 0707,2101,2102,2104
708,Estudante 0708,2101,2102,2105
709,Estudante 0709,2101,2102,2103
710,Estudante 0710,2101,2102,2103,2104,2105
711,Estudante 0711,2101,2102,2103,2104,2105
712,Estudante 0712,2101,2102,2103,2104,2105
713,Estudante 0713,2101,2102,2103,2104,2105
714,Estudante 0714,2101,2102,2103,2104,2105
715,Estudante 0715,2101,2102,2103,2104,2105
716,Estudante 0716,2101,2102,2103,2104,2105
717,Estudante 0717,2101,2102,2103,2104,2105
718,Estudante 0718,2101,2102,2103,2104,2105
719,Estudante 0719,2101,2102,2103,2104,2105
720,Estudante 0720,2103,2104
721,Estudante 0721,2101,2103
722,Estudante 0722,2104,2105
723,Estudante 0723,2103,2105
724,Estudante 0724,2101,2102,2103,2104,2105
725,Estudante 0725,2101,2102,2103,2104,2105
726,Estudante 0726,2101,2102,2103,2104,2105
727,Estudante 0727,2102,2104
728,Estudante 0728,2103,2104
729,Estudante 0729,2101,2102,2103,2104,2105
730,Estudante 0730,311,312,313,314,315,316
731,Estudante 0731,311,312,313,314,315,316
732,Estudante 0732,311,312,313,314,315,316
733,Estudante 0733,311,312,313,314,315,316
734,Estudante 0734,311,312,313,314,315,316
735,Estudante 0735,311,312,313,314,315,316
736,Estudante 0736,311,312,313,314,315,316
737,Estudante 0737,311,312,313,314,315,316
738,Estudante 0738,311,312,313,314,315,316
739,Estudante 0739,311,312,313,314,315,316
740,Estudante 0740,311,312,313,314,315,316
741,Estudante 0741,311,312,313,314,315,316
742,Estudante 0742,311,312,313,314,315,316
743,Estudante 0743,311,312,313,314,315,316
744,Estudante 0744,311,312,313,314,315,316
745,Estudante 0745,311,312,313,314,315,316
746,Estudante 0746,311,312,313,314,315,316
747,Estudante 0747,311,312,313,314,315,316
748,Estudante 0748,311,312,313,314,315,316
749,Estudante 0749,311,312,313,314,315,316
750,Estudante 0750,311,312,313,314,315,316
751,Estudante 0751,311,312,313,314,315,316
752,Estudante 0752,311,312,313,314,315,316
753,Estudante 0753,311,312,313,314,315,316
754,Estudante 0754,311,312,313,314,315,316
755,Estudante 0755,311,312,313,314,315,316
756,Estudante 0756,311,312,313,314,315,316
757,Estudante 0757,311,312,313,314,315,316
758,Estudante 0758,311,312,313,314,315,316
759,Estudante 0759,311,312,313,314,315,316
760,Estudante 0760,321,322,323,324,325
761,Estudante 0761,321,322,323,324,325
762,Estudante 0762,321,322
763,Estudante 0763,321,323
764,Estudante 0764,321,322,323,324,325
765,Estudante 0765,321,322,323,324,325
766,Estudante 0766,322,323,324
767,Estudante 0767,322,323,324
768,Estudante 0768,321,322,323,324,325
769,Estudante 0769,321,322,323,324,325
770,Estudante 0770,321,322,323,324,325
771,Estudante 0771,321,324,325
772,Estudante 0772,311,321,324,325
773,Estudante 0773,312,324
774,Estudante 0774,315,322,323
775,Estudante 0775,321,322,323,324,325
776,Estudante 0776,321,322,323,324,325
777,Estudante 0777,321,322,323,324,325
778,Estudante 0778,323,324
779,Estudante 0779,322,324
780,Estudante 0780,322,325
781,Estudante 0781,321,322,323,324,325
782,Estudante 0782,321,322,323,324,325
783,Estudante 0783,315,324
784,Estudante 0784,316,324,325
785,Estudante 0785,315,316,323
786,Estudante 0786,321,322,323,324,325
787,Estudante 0787,321,322,323,324,325
788,Estudante 0788,321,322,323,324,325
789,Estudante 0789,321,323,341
790,Estudante 0790,321,324,342,343
791,Estudante 0791,322,323,325
792,Estudante 0792,322,324,343,344,345
793,Estudante 0793,324,345,346,
794,Estudante 0794,321,322,323,324,325
795,Estudante 0795,321,322,323,324,325
796,Estudante 0796,321,322,323,324,325
797,Estudante 0797,341,342,343,344,345,346
798,Estudante 0798,341
799,Estudante 0799,344
800,Estudante 0800,344,345
801,Estudante 0801,341,342,343,344,345,346
802,Estudante 0802,346,351,352,353
803,Estudante 0803,345,346
804,Estudante 0804,311,322,344,345,346
805,Estudante 0805,341,342,343,344,345,346
806,Estudante 0806,343,344,355
807,Estudante 0807,341,343,345
808,Estudante 0808,346,354,355,
809,Estudante 0809,341,342,343,344,345,346
810,Estudante 0810,341,351,352
811,Estudante 0811,342,353,354
812,Estudante 0812,343,354,355
813,Estudante 0813,344,355
814,Estudante 0814,341,342,343,344,345,346
815,Estudante 0815,351,352,353,354,355
816,Estudante 0816,351,352,353,354,355
817,Estudante 0817,351,352,353,354,355
818,Estudante 0818,351,352,353,354,355
819,Estudante 0819,351,352,353,354,355,
820,Estudante 0820,341,342,343,344,345,346
821,Estudante 0821,351,352
822,Estudante 0822,351,353,354,355
823,Estudante 0823,341,342,343,344,345,346
824,Estudante 0824,353,354,355
825,Estudante 0825,352,354,355
826,Estudante 0826,341,342,343,352,354
827,Estudante 0827,344,345,353,354,355
828,Estudante 0828,361,362,363,364,365
829,Estudante 0829,361,362,371,373
830,Estudante 0830,363,365,373,375
831,Estudante 0831,361,362,363,364,365
832,Estudante 0832,361,362,363,364,365
833,Estudante 0833,361,362,363,364,365
834,Estudante 0834,361,362,363,364,365
835,Estudante 0835,362,363,374,375
836,Estudante 0836,361,364,371,372
837,Estudante 0837,361,362,363,364,365
838,Estudante 0838,363,364,365,371,373,374
839,Estudante 0839,361,362,363,364,365
840,Estudante 0840,371,372,373,381,382
841,Estudante 0841,361,362,363,364,365
842,Estudante 0842,361,362,363,364,365
843,Estudante 0843,361,362,363,364,365
844,Estudante 0844,361,362,372,373
845,Estudante 0845,361,362,363,364,365
846,Estudante 0846,361,362,363,364,365
847,Estudante 0847,371,372,373,374,375
848,Estudante 0848,371,372,373,374,375
849,Estudante 0849,371,372,373,374,375
850,Estudante 0850,371,372,373,374,375
851,Estudante 0851,361,362,363,364,365
852,Estudante 0852,361,362,363,364,365
853,Estudante 0853,361,362,363,364,365
854,Estudante 0854,371,372,373,374,375
855,Estudante 0855,371,372,373,374,375
856,Estudante 0856,371,372,373,374,375
857,Estudante 0857,371,372,373,374,375
858,Estudante 0858,371,372,373,374,375
859,Estudante 0859,371,372,373,374,375
860,Estudante 0860,371,372,373,374,375
861,Estudante 0861,371,372,381,383
862,Estudante 0862,372,373,384
863,Estudante 0863,373,384,385
864,Estudante 0864,371,372,381,382
865,Estudante 0865,381,382,383,384,385
866,Estudante 0866,381,382,383,384,385
867,Estudante 0867,381,382,383,384,385
868,Estudante 0868,381,382,383,384,385
869,Estudante 0869,381,382,383,384,385
870,Estudante 0870,382,383,391,392
871,Estudante 0871,384,393,394,395
872,Estudante 0872,381,382,383,384,385
873,Estudante 0873,381,382,383,384,385
874,Estudante 0874,381,382,383,384,385
875,Estudante 0875,381,385
876,Estudante 0876,382,384,391
877,Estudante 0877,381,382,383,384,385
878,Estudante 0878,381,382,383,384,385
879,Estudante 0879,391
880,Estudante 0880,391,392,393,394
881,Estudante 0881,391,392
882,Estudante 0882,391,392,393,394
883,Estudante 0883,391,392,393,394
884,Estudante 0884,391,392,393,394
885,Estudante 0885,393,394,3101,3102
886,Estudante 0886,393,3101,3102,3103,3104
887,Estudante 0887,3101,3102,3103,3104
888,Estudante 0888,3101,3102,3103,3104
889,Estudante 0889,391,392,393,394
890,Estudante 0890,391,392,393,394
891,Estudante 0891,391,392,393,394
892,Estudante 0892,391,392,393,394
893,Estudante 0893,393,3102
894,Estudante 0894,394,3104
895,Estudante 0895,391,392,3102
896,Estudante 0896,391,392,393,394
897,Estudante 0897,391,392,393,394
898,Estudante 0898,3101,3102,3103,3104
899,Estudante 0899,3101,3102,3103,3104
900,Estudante 0900,3101,3102,3103,3104
901,Estudante 0901,3101,3102,3103,3104
902,Estudante 0902,3101,3102,3103,3104
903,Estudante 0903,3101,3102,3103,3104
904,Estudante 0904,3101
905,Estudante 0905,3101,3102
906,Estudante 0906,3101,3103,3104
907,Estudante 0907,3102,3104
908,Estudante 0908,3103,3104
909,Estudante 0909,3101
910,Estudante 0910,3102
911,Estudante 0911,3101,3102,3103,3104
//------------------------------------------------------------------------------
//
// 7ª Seção:  Professor
//                código do professor
//                nome do professor
//                [código de disciplina]: códigos das disciplinas que o professor
//                    está apto a ministrar naquele período letivo.
//
//------------------------------------------------------------------------------
PROFESSOR
//------------------------------------------------------------------------------
//
1,prf001,Professor 001,111,141,212
2,prf002,Professor 002,112,121,231
3,prf003,Professor 003,131,141,211
4,prf004,Professor 004,111,154,234
5,prf005,Professor 005,142,155,212
6,prf006,Professor 006,112,121,233
7,prf007,Professor 007,142,155,231
8,prf008,Professor 008,111,122,234
9,prf009,Professor 009,123,154,212
10,prf010,Professor 010,113,161,241
11,prf011,Professor 011,124,154,232
12,prf012,Professor 012,123,162,233
13,prf013,Professor 013,131,142,241
14,prf014,Professor 014,114,162,211
15,prf015,Professor 015,124,152,232
16,prf016,Professor 016,132,153,215
17,prf017,Professor 017,132,161,215
18,prf018,Professor 018,114,143,242
19,prf019,Professor 019,134,161,242
20,prf020,Professor 020,134,153,212
21,prf021,Professor 021,133,163,224
22,prf022,Professor 022,115,151,214
23,prf023,Professor 023,143,163,221
24,prf024,Professor 024,133,163,235
25,prf025,Professor 025,135,152,214
26,prf026,Professor 026,133,171,224
27,prf027,Professor 027,135,164,222
28,prf028,Professor 028,143,144,235
29,prf029,Professor 029,144,164,213
30,prf030,Professor 030,145,146,243
31,prf031,Professor 031,146,151,221
32,prf032,Professor 032,173,181,235
33,prf033,Professor 033,174,183,223
34,prf034,Professor 034,171,182,223
35,prf035,Professor 035,175,181,213
36,prf036,Professor 036,172,183,244
37,prf037,Professor 037,175,182,261
38,prf038,Professor 038,172,184,244
39,prf039,Professor 039,185,194,245
40,prf040,Professor 040,185,1107,255
41,prf041,Professor 041,191,194,245
42,prf042,Professor 042,194,1106,254
43,prf043,Professor 043,192,1105,243
44,prf044,Professor 044,1105,1106,253
45,prf045,Professor 045,191,1107,255
46,prf046,Professor 046,1104,251,252
47,prf047,Professor 047,193,1101,253
48,prf048,Professor 048,1102,251,252
49,prf049,Professor 049,1102,253,254
50,prf050,Professor 050,1101,254,255
51,prf051,Professor 051,261,271,293
52,prf052,Professor 052,264,281,291
53,prf053,Professor 053,273,284,291
54,prf054,Professor 054,262,271,291
55,prf055,Professor 055,265,281,293
56,prf056,Professor 056,272,284,294
57,prf057,Professor 057,264,272,292
58,prf058,Professor 058,262,285,292
59,prf059,Professor 059,274,281,294
60,prf060,Professor 060,265,283,293
61,prf061,Professor 061,265,285,2101
62,prf062,Professor 062,263,282,291
63,prf063,Professor 063,274,282,292
64,prf064,Professor 064,275,283,2101
65,prf065,Professor 065,2102,311,315
66,prf066,Professor 066,2103,312,315
67,prf067,Professor 067,2102,313,314
68,prf068,Professor 068,2104,311,321
69,prf069,Professor 069,2105,314,321
70,prf070,Professor 070,2105,312,313
71,prf071,Professor 071,315,316,334
72,prf072,Professor 072,314,316,341
73,prf073,Professor 073,322,331,344
74,prf074,Professor 074,323,331,343
75,prf075,Professor 075,331,332,335
76,prf076,Professor 076,322,334,351
77,prf077,Professor 077,325,332,342
78,prf078,Professor 078,324,341,344
79,prf079,Professor 079,324,333,351
80,prf080,Professor 080,325,333,343
81,prf081,Professor 081,352,364,394
82,prf082,Professor 082,342,365,391
83,prf083,Professor 083,344,364,394
84,prf084,Professor 084,352,365,392
85,prf085,Professor 085,353,354,393
86,prf086,Professor 086,353,363,391
87,prf087,Professor 087,365,371,372
88,prf088,Professor 088,354,362,3101
89,prf089,Professor 089,372,374,393
90,prf090,Professor 090,355,361,3102
91,prf091,Professor 091,355,361,3104
92,prf092,Professor 092,373,375,3103
93,prf093,Professor 093,374,381,3102
94,prf094,Professor 094,375,3103
95,prf095,Professor 095,382,3101
96,prf096,Professor 096,381,3102
97,prf097,Professor 097,382,3104
98,prf098,Professor 098,383,3105
99,prf099,Professor 099,323,381,392
100,prf0100,Professor 100,311,372,394
//
//------------------------------------------------------------------------------
// FIM DO ARQUIVO
//------------------------------------------------------------------------------
//
